Lab 7: Using APIs – Liam Quach
…
      tibble(
        state_abbr   = state,
        capital_name = capital,
        lat, long,
        time1 = extract_times(pass, 1),
        time2 = extract_times(pass, 2),
        time3 = extract_times(pass, 3)
      )
    }
  )
}

get_all_capitals_passes(capitals)

# A tibble: 51 × 7
   state_abbr capital_name   lat   long time1                    time2     time3
   <chr>      <chr>        <dbl>  <dbl> <chr>                    <chr>     <chr>
 1 AL         Montgomery    32.4  -86.3 2025-06-02T16:50:28.228Z 2025-06-… 2025…
 2 AZ         Phoenix       33.4 -112.  2025-06-02T18:23:29.462Z 2025-06-… 2025…
 3 AR         Little        34.7  -92.3 2025-06-02T16:50:15.672Z 2025-06-… 2025…
 4 CA         Sacramento    38.6 -121.  2025-06-02T19:59:46.905Z 2025-06-… 2025…
 5 CO         Denver        39.7 -105.  2025-06-02T18:25:43.133Z 2025-06-… 2025…
 6 CT         Hartford      41.8  -72.7 2025-06-02T16:54:44.365Z 2025-06-… 2025…
 7 DC         District      38.9  -77.0 2025-06-02T16:53:35.590Z 2025-06-… 2025…
 8 DE         Dover         39.2  -75.5 2025-06-02T16:53:56.801Z 2025-06-… 2025…
 9 FL         Tallahassee   30.5  -84.3 2025-06-03T16:02:33.026Z 2025-06-… <NA> 
10 GA         Atlanta       33.8  -84.4 2025-06-02T16:51:29.263Z 2025-06-… 2025…
# ℹ 41 more rows
…
